{
  "project_info": {
    "project_number": "971410662826",
    "firebase_url": "https://maapza-d8f1e.firebaseio.com",
    "project_id": "maapza-d8f1e",
    "storage_bucket": "maapza-d8f1e.appspot.com"
  },
  "client": [
    {
      "client_info": {
        "mobilesdk_app_id": "1:971410662826:android:254f919356fb5696",
        "android_client_info": {
          "package_name": "com.maapza.maapza"
        }
      },
      "oauth_client": [
        {
          "client_id": "971410662826-vfg31rduntfrhlsd7vk7jeh6ivgs6niv.apps.googleusercontent.com",
          "client_type": 1,
          "android_info": {
            "package_name": "com.maapza.maapza",
            "certificate_hash": "91df142c4593f2aaad90783045c6bc15a77bc99b"
          }
        },
        {
          "client_id": "971410662826-5leidibueqmlj2eg5djsih5n2m1oiog8.apps.googleusercontent.com",
          "client_type": 1,
          "android_info": {
            "package_name": "com.maapza.maapza",
            "certificate_hash": "b4a31625df2f02385219af31fa94ea35a7689e11"
          }
        },
        {
          "client_id": "971410662826-5a1m51ja4g9dgo8atmdae5dcggd4kbv9.apps.googleusercontent.com",
          "client_type": 1,
          "android_info": {
            "package_name": "com.maapza.maapza",
            "certificate_hash": "f4ec3d071c27366e57a5f08cc083d8fdb5fc483a"
          }
        },
        {
          "client_id": "971410662826-bjh63pq8927afvvqnjrudernkleup9i1.apps.googleusercontent.com",
          "client_type": 3
        }
      ],
      "api_key": [
        {
          "current_key": "AIzaSyAH0lvuUjHnL6dd3qDcWrH-u3RY0qOepwI"
        }
      ],
      "services": {
        "appinvite_service": {
          "other_platform_oauth_client": [
            {
              "client_id": "971410662826-bjh63pq8927afvvqnjrudernkleup9i1.apps.googleusercontent.com",
              "client_type": 3
            }
          ]
        }
      }
    }
  ],
  "configuration_version": "1"
}